[17/Aug/2017 09:45:22] INFO - Adding job tentatively -- it will be properly scheduled when the scheduler starts
[17/Aug/2017 09:45:22] INFO - Started crealring the DB
Traceback (most recent call last):
  File "server.py", line 498, in <module>
    createDB.CreateDB(mongo, ctx)
  File "/home/ubuntu/iithassit/src/createDB.py", line 81, in CreateDB
    ClearDB(mongo,ctx)
  File "/home/ubuntu/iithassit/src/createDB.py", line 51, in ClearDB
    mongo.db.kandi2odf_summer.drop()
  File "/home/ubuntu/.local/lib/python2.7/site-packages/pymongo/collection.py", line 962, in drop
    self.__database.drop_collection(self.__name)
  File "/home/ubuntu/.local/lib/python2.7/site-packages/pymongo/database.py", line 576, in drop_collection
    ReadPreference.PRIMARY) as (sock_info, slave_ok):
  File "/usr/lib/python2.7/contextlib.py", line 17, in __enter__
    return self.gen.next()
  File "/home/ubuntu/.local/lib/python2.7/site-packages/pymongo/mongo_client.py", line 859, in _socket_for_reads
    with self._get_socket(read_preference) as sock_info:
  File "/usr/lib/python2.7/contextlib.py", line 17, in __enter__
    return self.gen.next()
  File "/home/ubuntu/.local/lib/python2.7/site-packages/pymongo/mongo_client.py", line 823, in _get_socket
    server = self._get_topology().select_server(selector)
  File "/home/ubuntu/.local/lib/python2.7/site-packages/pymongo/topology.py", line 214, in select_server
    address))
  File "/home/ubuntu/.local/lib/python2.7/site-packages/pymongo/topology.py", line 189, in select_servers
    self._error_message(selector))
pymongo.errors.ServerSelectionTimeoutError: localhost:27017: [Errno 111] Connection refused
Error in atexit._run_exitfuncs:
Traceback (most recent call last):
  File "/usr/lib/python2.7/atexit.py", line 24, in _run_exitfuncs
    func(*targs, **kargs)
  File "/home/ubuntu/.local/lib/python2.7/site-packages/pymongo/periodic_executor.py", line 167, in _shutdown_executors
    executor.join(1)
  File "/home/ubuntu/.local/lib/python2.7/site-packages/pymongo/periodic_executor.py", line 96, in join
    self._thread.join(timeout)
  File "/usr/lib/python2.7/threading.py", line 951, in join
    self.__block.wait(delay)
  File "/usr/lib/python2.7/threading.py", line 359, in wait
    _sleep(delay)
KeyboardInterrupt
Error in sys.exitfunc:
Traceback (most recent call last):
  File "/usr/lib/python2.7/atexit.py", line 24, in _run_exitfuncs
    func(*targs, **kargs)
  File "/home/ubuntu/.local/lib/python2.7/site-packages/pymongo/periodic_executor.py", line 167, in _shutdown_executors
    executor.join(1)
  File "/home/ubuntu/.local/lib/python2.7/site-packages/pymongo/periodic_executor.py", line 96, in join
    self._thread.join(timeout)
  File "/usr/lib/python2.7/threading.py", line 951, in join
    self.__block.wait(delay)
  File "/usr/lib/python2.7/threading.py", line 359, in wait
    _sleep(delay)
KeyboardInterrupt
[17/Aug/2017 09:46:04] INFO - Adding job tentatively -- it will be properly scheduled when the scheduler starts
[17/Aug/2017 09:46:04] INFO - Started crealring the DB
Traceback (most recent call last):
  File "server.py", line 498, in <module>
    createDB.CreateDB(mongo, ctx)
  File "/home/ubuntu/iithassit/src/createDB.py", line 81, in CreateDB
    ClearDB(mongo,ctx)
  File "/home/ubuntu/iithassit/src/createDB.py", line 51, in ClearDB
    mongo.db.kandi2odf_summer.drop()
  File "/home/ubuntu/.local/lib/python2.7/site-packages/pymongo/collection.py", line 962, in drop
    self.__database.drop_collection(self.__name)
  File "/home/ubuntu/.local/lib/python2.7/site-packages/pymongo/database.py", line 576, in drop_collection
    ReadPreference.PRIMARY) as (sock_info, slave_ok):
  File "/usr/lib/python2.7/contextlib.py", line 17, in __enter__
    return self.gen.next()
  File "/home/ubuntu/.local/lib/python2.7/site-packages/pymongo/mongo_client.py", line 859, in _socket_for_reads
    with self._get_socket(read_preference) as sock_info:
  File "/usr/lib/python2.7/contextlib.py", line 17, in __enter__
    return self.gen.next()
  File "/home/ubuntu/.local/lib/python2.7/site-packages/pymongo/mongo_client.py", line 823, in _get_socket
    server = self._get_topology().select_server(selector)
  File "/home/ubuntu/.local/lib/python2.7/site-packages/pymongo/topology.py", line 214, in select_server
    address))
  File "/home/ubuntu/.local/lib/python2.7/site-packages/pymongo/topology.py", line 189, in select_servers
    self._error_message(selector))
pymongo.errors.ServerSelectionTimeoutError: localhost:27017: [Errno 111] Connection refused
